-----------------------------------------
Yellow Door
-----------------------------------------

Bash: "Excellent choice! Open wide!"

Bash uppercuts you with an old smelly trout.

Try again!

-----------------------------------------

ctrl-x to exit nano and type cd ../ to return to the previous room
